{
   project = {
        ['test'
        ] = {
            ['lang'
            ] = {
                ['cpp'
                ] = {
                    ['Tests'
                    ] = {
               'CMakeLists.txt',
                    },
                },
            },
        },
        ['other'
        ] =
      {
            ['default'
            ] =
        {
          'README.md',
          '.gitignore',
            },
            ['lang'
            ] =
        {
                ['lua'
                ] =
            {
            '.stylua.toml',
                },
                {
                    ['html'
                    ] =
                    {},
                },
                ['cpp'
                ] =
            {
              '.clang-format',
              'main.cpp',
              'CMakeLists.txt',
                },
                ['python'
                ] =
            {
            'requirements.txt',
                },
                ['html'
                ]
            },
        },
    },
}
